src/tb.vcd
$date
	Sat Aug 19 19:24:18 2023
$end
$version
	Icarus Verilog
$end
$timescale
	1ps
$end
$scope module tb $end
$var wire 6 ! i_address [5:0] $end
$var wire 8 " i_data [7:0] $end
$var wire 1 # i_write_en $end
$var wire 8 $ o_data [7:0] $end
$var wire 8 % uio_in [7:0] $end
$var wire 8 & uo_out [7:0] $end
$var wire 8 ' uio_out [7:0] $end
$var wire 8 ( uio_oe [7:0] $end
$var wire 8 ) ui_in [7:0] $end
$var wire 1 * o_pwm3B $end
$var wire 1 + o_pwm3A $end
$var wire 1 , o_pwm2B $end
$var wire 1 - o_pwm2A $end
$var wire 1 . o_pwm1B $end
$var wire 1 / o_pwm1A $end
$var reg 1 0 clk $end
$var reg 1 1 ena $end
$var reg 1 2 rst_n $end
$scope module tt_um_eldritch_pwm_peripheral $end
$var wire 1 0 clk $end
$var wire 1 1 ena $end
$var wire 1 2 rst_n $end
$var wire 8 3 ui_in [7:0] $end
$var wire 8 4 uio_in [7:0] $end
$var wire 8 5 w_pwm1A_action_register [7:0] $end
$var wire 8 6 w_pwm1A_deadband_register [7:0] $end
$var wire 8 7 w_pwm1A_lsb_compa [7:0] $end
$var wire 8 8 w_pwm1A_lsb_compb [7:0] $end
$var wire 8 9 w_pwm1A_msb_compa [7:0] $end
$var wire 8 : w_pwm1A_msb_compb [7:0] $end
$var wire 8 ; w_pwm1B_action_register [7:0] $end
$var wire 8 < w_pwm1B_deadband_register [7:0] $end
$var wire 8 = w_pwm1B_lsb_compa [7:0] $end
$var wire 8 > w_pwm1B_lsb_compb [7:0] $end
$var wire 8 ? w_pwm1B_msb_compa [7:0] $end
$var wire 8 @ w_pwm1B_msb_compb [7:0] $end
$var wire 8 A w_pwm1_control_register [7:0] $end
$var wire 8 B w_pwm1_lsb_period [7:0] $end
$var wire 8 C w_pwm1_msb_period [7:0] $end
$var wire 8 D w_pwm2A_action_register [7:0] $end
$var wire 8 E w_pwm2A_deadband_register [7:0] $end
$var wire 8 F w_pwm2A_lsb_compa [7:0] $end
$var wire 8 G w_pwm2A_lsb_compb [7:0] $end
$var wire 8 H w_pwm2A_msb_compa [7:0] $end
$var wire 8 I w_pwm2A_msb_compb [7:0] $end
$var wire 8 J w_pwm2B_action_register [7:0] $end
$var wire 8 K w_pwm2B_deadband_register [7:0] $end
$var wire 8 L w_pwm2B_lsb_compa [7:0] $end
$var wire 8 M w_pwm2B_lsb_compb [7:0] $end
$var wire 8 N w_pwm2B_msb_compa [7:0] $end
$var wire 8 O w_pwm2B_msb_compb [7:0] $end
$var wire 8 P w_pwm2_control_register [7:0] $end
$var wire 8 Q w_pwm2_lsb_period [7:0] $end
$var wire 8 R w_pwm2_lsb_phase [7:0] $end
$var wire 8 S w_pwm2_msb_period [7:0] $end
$var wire 8 T w_pwm2_msb_phase [7:0] $end
$var wire 8 U w_pwm3A_action_register [7:0] $end
$var wire 8 V w_pwm3A_deadband_register [7:0] $end
$var wire 8 W w_pwm3A_lsb_compa [7:0] $end
$var wire 8 X w_pwm3A_lsb_compb [7:0] $end
$var wire 8 Y w_pwm3A_msb_compa [7:0] $end
$var wire 8 Z w_pwm3A_msb_compb [7:0] $end
$var wire 8 [ w_pwm3B_action_register [7:0] $end
$var wire 8 \ w_pwm3B_deadband_register [7:0] $end
$var wire 8 ] w_pwm3B_lsb_compa [7:0] $end
$var wire 8 ^ w_pwm3B_lsb_compb [7:0] $end
$var wire 8 _ w_pwm3B_msb_compa [7:0] $end
$var wire 8 ` w_pwm3B_msb_compb [7:0] $end
$var wire 8 a w_pwm3_control_register [7:0] $end
$var wire 8 b w_pwm3_lsb_period [7:0] $end
$var wire 8 c w_pwm3_lsb_phase [7:0] $end
$var wire 8 d w_pwm3_msb_period [7:0] $end
$var wire 8 e w_pwm3_msb_phase [7:0] $end
$var wire 1 f w_sync2 $end
$var wire 1 g w_sync1 $end
$var wire 1 h w_pwm3B $end
$var wire 1 i w_pwm3A $end
$var wire 1 j w_pwm2B $end
$var wire 1 k w_pwm2A $end
$var wire 1 l w_pwm1B $end
$var wire 1 m w_pwm1A $end
$var wire 16 n w_period_next3 [15:0] $end
$var wire 16 o w_period_next2 [15:0] $end
$var wire 16 p w_period_next1 [15:0] $end
$var wire 16 q w_period3 [15:0] $end
$var wire 16 r w_period2 [15:0] $end
$var wire 16 s w_period1 [15:0] $end
$var wire 8 t uo_out [7:0] $end
$var wire 8 u uio_out [7:0] $end
$var wire 8 v uio_oe [7:0] $end
$scope module comparator1A $end
$var wire 2 w i_action_compare_a [1:0] $end
$var wire 2 x i_action_compare_b [1:0] $end
$var wire 2 y i_action_period [1:0] $end
$var wire 2 z i_action_zero [1:0] $end
$var wire 1 0 i_clk $end
$var wire 16 { i_compare_a [15:0] $end
$var wire 16 | i_compare_b [15:0] $end
$var wire 16 } i_period [15:0] $end
$var wire 1 ~ i_reset $end
$var wire 1 m o_pwm $end
$var wire 16 !" i_counter_next [15:0] $end
$var wire 16 "" i_counter [15:0] $end
$var reg 1 #" r_pwm $end
$var reg 1 $" r_pwm_next $end
$upscope $end
$scope module comparator1B $end
$var wire 2 %" i_action_compare_a [1:0] $end
$var wire 2 &" i_action_compare_b [1:0] $end
$var wire 2 '" i_action_period [1:0] $end
$var wire 2 (" i_action_zero [1:0] $end
$var wire 1 0 i_clk $end
$var wire 16 )" i_compare_a [15:0] $end
$var wire 16 *" i_compare_b [15:0] $end
$var wire 16 +" i_period [15:0] $end
$var wire 1 ," i_reset $end
$var wire 1 l o_pwm $end
$var wire 16 -" i_counter_next [15:0] $end
$var wire 16 ." i_counter [15:0] $end
$var reg 1 /" r_pwm $end
$var reg 1 0" r_pwm_next $end
$upscope $end
$scope module comparator2A $end
$var wire 2 1" i_action_compare_a [1:0] $end
$var wire 2 2" i_action_compare_b [1:0] $end
$var wire 2 3" i_action_period [1:0] $end
$var wire 2 4" i_action_zero [1:0] $end
$var wire 1 0 i_clk $end
$var wire 16 5" i_compare_a [15:0] $end
$var wire 16 6" i_compare_b [15:0] $end
$var wire 16 7" i_period [15:0] $end
$var wire 1 8" i_reset $end
$var wire 1 k o_pwm $end
$var wire 16 9" i_counter_next [15:0] $end
$var wire 16 :" i_counter [15:0] $end
$var reg 1 ;" r_pwm $end
$var reg 1 <" r_pwm_next $end
$upscope $end
$scope module comparator2B $end
$var wire 2 =" i_action_compare_a [1:0] $end
$var wire 2 >" i_action_compare_b [1:0] $end
$var wire 2 ?" i_action_period [1:0] $end
$var wire 2 @" i_action_zero [1:0] $end
$var wire 1 0 i_clk $end
$var wire 16 A" i_compare_a [15:0] $end
$var wire 16 B" i_compare_b [15:0] $end
$var wire 16 C" i_period [15:0] $end
$var wire 1 D" i_reset $end
$var wire 1 j o_pwm $end
$var wire 16 E" i_counter_next [15:0] $end
$var wire 16 F" i_counter [15:0] $end
$var reg 1 G" r_pwm $end
$var reg 1 H" r_pwm_next $end
$upscope $end
$scope module comparator3A $end
$var wire 2 I" i_action_compare_a [1:0] $end
$var wire 2 J" i_action_compare_b [1:0] $end
$var wire 2 K" i_action_period [1:0] $end
$var wire 2 L" i_action_zero [1:0] $end
$var wire 1 0 i_clk $end
$var wire 16 M" i_compare_a [15:0] $end
$var wire 16 N" i_compare_b [15:0] $end
$var wire 16 O" i_period [15:0] $end
$var wire 1 P" i_reset $end
$var wire 1 i o_pwm $end
$var wire 16 Q" i_counter_next [15:0] $end
$var wire 16 R" i_counter [15:0] $end
$var reg 1 S" r_pwm $end
$var reg 1 T" r_pwm_next $end
$upscope $end
$scope module comparator3B $end
$var wire 2 U" i_action_compare_a [1:0] $end
$var wire 2 V" i_action_compare_b [1:0] $end
$var wire 2 W" i_action_period [1:0] $end
$var wire 2 X" i_action_zero [1:0] $end
$var wire 1 0 i_clk $end
$var wire 16 Y" i_compare_a [15:0] $end
$var wire 16 Z" i_compare_b [15:0] $end
$var wire 16 [" i_period [15:0] $end
$var wire 1 \" i_reset $end
$var wire 1 h o_pwm $end
$var wire 16 ]" i_counter_next [15:0] $end
$var wire 16 ^" i_counter [15:0] $end
$var reg 1 _" r_pwm $end
$var reg 1 `" r_pwm_next $end
$upscope $end
$scope module counter1_master $end
$var wire 1 0 i_clk $end
$var wire 16 a" i_compare_b [15:0] $end
$var wire 1 b" i_en $end
$var wire 2 c" i_mode [1:0] $end
$var wire 16 d" i_period [15:0] $end
$var wire 1 e" i_reset $end
$var wire 1 f" i_sync_en $end
$var wire 2 g" i_sync_sel [1:0] $end
$var wire 16 h" o_period [15:0] $end
$var wire 16 i" o_period_next [15:0] $end
$var wire 1 g o_sync $end
$var reg 16 j" r_period_counter [15:0] $end
$var reg 16 k" r_period_counter_next [15:0] $end
$var reg 1 l" r_sync $end
$var reg 1 m" r_sync_next $end
$var reg 1 n" r_up_down_state $end
$var reg 1 o" r_up_down_state_next $end
$upscope $end
$scope module counter2_slave $end
$var wire 1 0 i_clk $end
$var wire 16 p" i_compare_b [15:0] $end
$var wire 1 q" i_en $end
$var wire 2 r" i_mode [1:0] $end
$var wire 16 s" i_period [15:0] $end
$var wire 16 t" i_phase [15:0] $end
$var wire 1 u" i_phase_direction $end
$var wire 1 g i_phase_en $end
$var wire 1 v" i_reset $end
$var wire 1 w" i_sync_en $end
$var wire 2 x" i_sync_sel [1:0] $end
$var wire 16 y" o_period [15:0] $end
$var wire 16 z" o_period_next [15:0] $end
$var wire 1 f o_sync $end
$var reg 16 {" r_period_counter [15:0] $end
$var reg 16 |" r_period_counter_next [15:0] $end
$var reg 1 }" r_sync $end
$var reg 1 ~" r_sync_next $end
$var reg 1 !# r_up_down_state $end
$var reg 1 "# r_up_down_state_next $end
$upscope $end
$scope module counter3_slave $end
$var wire 1 0 i_clk $end
$var wire 16 ## i_compare_b [15:0] $end
$var wire 1 $# i_en $end
$var wire 2 %# i_mode [1:0] $end
$var wire 16 &# i_period [15:0] $end
$var wire 16 '# i_phase [15:0] $end
$var wire 1 (# i_phase_direction $end
$var wire 1 f i_phase_en $end
$var wire 1 )# i_reset $end
$var wire 1 *# i_sync_en $end
$var wire 2 +# i_sync_sel [1:0] $end
$var wire 16 ,# o_period [15:0] $end
$var wire 16 -# o_period_next [15:0] $end
$var wire 1 .# o_sync $end
$var reg 16 /# r_period_counter [15:0] $end
$var reg 16 0# r_period_counter_next [15:0] $end
$var reg 1 1# r_sync $end
$var reg 1 2# r_sync_next $end
$var reg 1 3# r_up_down_state $end
$var reg 1 4# r_up_down_state_next $end
$upscope $end
$scope module deadband1A $end
$var wire 1 0 i_clk $end
$var wire 4 5# i_fed [3:0] $end
$var wire 1 m i_pwm $end
$var wire 4 6# i_red [3:0] $end
$var wire 1 7# i_reset $end
$var wire 1 8# o_pwm $end
$var reg 4 9# r_fed_counter [3:0] $end
$var reg 4 :# r_fed_counter_next [3:0] $end
$var reg 1 8# r_pwm $end
$var reg 1 ;# r_pwm_next $end
$var reg 4 <# r_red_counter [3:0] $end
$var reg 4 =# r_red_counter_next [3:0] $end
$var reg 2 ># r_state [1:0] $end
$var reg 2 ?# r_state_next [1:0] $end
$upscope $end
$scope module deadband1B $end
$var wire 1 0 i_clk $end
$var wire 4 @# i_fed [3:0] $end
$var wire 1 l i_pwm $end
$var wire 4 A# i_red [3:0] $end
$var wire 1 B# i_reset $end
$var wire 1 C# o_pwm $end
$var reg 4 D# r_fed_counter [3:0] $end
$var reg 4 E# r_fed_counter_next [3:0] $end
$var reg 1 C# r_pwm $end
$var reg 1 F# r_pwm_next $end
$var reg 4 G# r_red_counter [3:0] $end
$var reg 4 H# r_red_counter_next [3:0] $end
$var reg 2 I# r_state [1:0] $end
$var reg 2 J# r_state_next [1:0] $end
$upscope $end
$scope module deadband2A $end
$var wire 1 0 i_clk $end
$var wire 4 K# i_fed [3:0] $end
$var wire 1 k i_pwm $end
$var wire 4 L# i_red [3:0] $end
$var wire 1 M# i_reset $end
$var wire 1 N# o_pwm $end
$var reg 4 O# r_fed_counter [3:0] $end
$var reg 4 P# r_fed_counter_next [3:0] $end
$var reg 1 N# r_pwm $end
$var reg 1 Q# r_pwm_next $end
$var reg 4 R# r_red_counter [3:0] $end
$var reg 4 S# r_red_counter_next [3:0] $end
$var reg 2 T# r_state [1:0] $end
$var reg 2 U# r_state_next [1:0] $end
$upscope $end
$scope module deadband2B $end
$var wire 1 0 i_clk $end
$var wire 4 V# i_fed [3:0] $end
$var wire 1 j i_pwm $end
$var wire 4 W# i_red [3:0] $end
$var wire 1 X# i_reset $end
$var wire 1 Y# o_pwm $end
$var reg 4 Z# r_fed_counter [3:0] $end
$var reg 4 [# r_fed_counter_next [3:0] $end
$var reg 1 Y# r_pwm $end
$var reg 1 \# r_pwm_next $end
$var reg 4 ]# r_red_counter [3:0] $end
$var reg 4 ^# r_red_counter_next [3:0] $end
$var reg 2 _# r_state [1:0] $end
$var reg 2 `# r_state_next [1:0] $end
$upscope $end
$scope module deadband3A $end
$var wire 1 0 i_clk $end
$var wire 4 a# i_fed [3:0] $end
$var wire 1 i i_pwm $end
$var wire 4 b# i_red [3:0] $end
$var wire 1 c# i_reset $end
$var wire 1 d# o_pwm $end
$var reg 4 e# r_fed_counter [3:0] $end
$var reg 4 f# r_fed_counter_next [3:0] $end
$var reg 1 d# r_pwm $end
$var reg 1 g# r_pwm_next $end
$var reg 4 h# r_red_counter [3:0] $end
$var reg 4 i# r_red_counter_next [3:0] $end
$var reg 2 j# r_state [1:0] $end
$var reg 2 k# r_state_next [1:0] $end
$upscope $end
$scope module deadband3B $end
$var wire 1 0 i_clk $end
$var wire 4 l# i_fed [3:0] $end
$var wire 1 h i_pwm $end
$var wire 4 m# i_red [3:0] $end
$var wire 1 n# i_reset $end
$var wire 1 o# o_pwm $end
$var reg 4 p# r_fed_counter [3:0] $end
$var reg 4 q# r_fed_counter_next [3:0] $end
$var reg 1 o# r_pwm $end
$var reg 1 r# r_pwm_next $end
$var reg 4 s# r_red_counter [3:0] $end
$var reg 4 t# r_red_counter_next [3:0] $end
$var reg 2 u# r_state [1:0] $end
$var reg 2 v# r_state_next [1:0] $end
$upscope $end
$scope module register_file $end
$var wire 6 w# i_address [5:0] $end
$var wire 1 0 i_clk $end
$var wire 8 x# i_data [7:0] $end
$var wire 1 y# i_reset $end
$var wire 1 z# i_write_en $end
$var wire 8 {# o_data [7:0] $end
$var wire 8 |# o_pwm1A_action_register [7:0] $end
$var wire 8 }# o_pwm1A_deadband_register [7:0] $end
$var wire 8 ~# o_pwm1A_lsb_compa [7:0] $end
$var wire 8 !$ o_pwm1A_lsb_compb [7:0] $end
$var wire 8 "$ o_pwm1A_msb_compa [7:0] $end
$var wire 8 #$ o_pwm1A_msb_compb [7:0] $end
$var wire 8 $$ o_pwm1B_action_register [7:0] $end
$var wire 8 %$ o_pwm1B_deadband_register [7:0] $end
$var wire 8 &$ o_pwm1B_lsb_compa [7:0] $end
$var wire 8 '$ o_pwm1B_lsb_compb [7:0] $end
$var wire 8 ($ o_pwm1B_msb_compa [7:0] $end
$var wire 8 )$ o_pwm1B_msb_compb [7:0] $end
$var wire 8 *$ o_pwm1_control_register [7:0] $end
$var wire 8 +$ o_pwm1_lsb_period [7:0] $end
$var wire 8 ,$ o_pwm1_msb_period [7:0] $end
$var wire 8 -$ o_pwm2A_action_register [7:0] $end
$var wire 8 .$ o_pwm2A_deadband_register [7:0] $end
$var wire 8 /$ o_pwm2A_lsb_compa [7:0] $end
$var wire 8 0$ o_pwm2A_lsb_compb [7:0] $end
$var wire 8 1$ o_pwm2A_msb_compa [7:0] $end
$var wire 8 2$ o_pwm2A_msb_compb [7:0] $end
$var wire 8 3$ o_pwm2B_action_register [7:0] $end
$var wire 8 4$ o_pwm2B_deadband_register [7:0] $end
$var wire 8 5$ o_pwm2B_lsb_compa [7:0] $end
$var wire 8 6$ o_pwm2B_lsb_compb [7:0] $end
$var wire 8 7$ o_pwm2B_msb_compa [7:0] $end
$var wire 8 8$ o_pwm2B_msb_compb [7:0] $end
$var wire 8 9$ o_pwm2_control_register [7:0] $end
$var wire 8 :$ o_pwm2_lsb_period [7:0] $end
$var wire 8 ;$ o_pwm2_lsb_phase [7:0] $end
$var wire 8 <$ o_pwm2_msb_period [7:0] $end
$var wire 8 =$ o_pwm2_msb_phase [7:0] $end
$var wire 8 >$ o_pwm3A_action_register [7:0] $end
$var wire 8 ?$ o_pwm3A_deadband_register [7:0] $end
$var wire 8 @$ o_pwm3A_lsb_compa [7:0] $end
$var wire 8 A$ o_pwm3A_lsb_compb [7:0] $end
$var wire 8 B$ o_pwm3A_msb_compa [7:0] $end
$var wire 8 C$ o_pwm3A_msb_compb [7:0] $end
$var wire 8 D$ o_pwm3B_action_register [7:0] $end
$var wire 8 E$ o_pwm3B_deadband_register [7:0] $end
$var wire 8 F$ o_pwm3B_lsb_compa [7:0] $end
$var wire 8 G$ o_pwm3B_lsb_compb [7:0] $end
$var wire 8 H$ o_pwm3B_msb_compa [7:0] $end
$var wire 8 I$ o_pwm3B_msb_compb [7:0] $end
$var wire 8 J$ o_pwm3_control_register [7:0] $end
$var wire 8 K$ o_pwm3_lsb_period [7:0] $end
$var wire 8 L$ o_pwm3_lsb_phase [7:0] $end
$var wire 8 M$ o_pwm3_msb_period [7:0] $end
$var wire 8 N$ o_pwm3_msb_phase [7:0] $end
$var integer 32 O$ i [31:0] $end
$upscope $end
$upscope $end
$upscope $end
$enddefinitions $end
#0
$dumpvars
bx O$
bx N$
bx M$
bx L$
bx K$
bx J$
bx I$
bx H$
bx G$
bx F$
bx E$
bx D$
bx C$
bx B$
bx A$
bx @$
bx ?$
bx >$
bx =$
bx <$
bx ;$
bx :$
bx 9$
bx 8$
bx 7$
bx 6$
bx 5$
bx 4$
bx 3$
bx 2$
bx 1$
bx 0$
bx /$
bx .$
bx -$
bx ,$
bx +$
bx *$
bx )$
bx ($
bx '$
bx &$
bx %$
bx $$
bx #$
bx "$
bx !$
bx ~#
bx }#
bx |#
bx {#
0z#
0y#
b0 x#
bz w#
bx v#
bx u#
bx t#
bx s#
xr#
bx q#
bx p#
xo#
0n#
bx m#
bx l#
bx k#
bx j#
bx i#
bx h#
xg#
bx f#
bx e#
xd#
0c#
bx b#
bx a#
bx `#
bx _#
bx ^#
bx ]#
x\#
bx [#
bx Z#
xY#
0X#
bx W#
bx V#
bx U#
bx T#
bx S#
bx R#
xQ#
bx P#
bx O#
xN#
0M#
bx L#
bx K#
bx J#
bx I#
bx H#
bx G#
xF#
bx E#
bx D#
xC#
0B#
bx A#
bx @#
bx ?#
bx >#
bx =#
bx <#
x;#
bx :#
bx 9#
x8#
07#
bx 6#
bx 5#
x4#
x3#
x2#
x1#
bx 0#
bx /#
x.#
bx -#
bx ,#
bx +#
x*#
0)#
x(#
bx '#
bx &#
bx %#
x$#
bx ##
x"#
x!#
x~"
x}"
bx |"
bx {"
bx z"
bx y"
bx x"
xw"
0v"
xu"
bx t"
bx s"
bx r"
xq"
bx p"
xo"
xn"
xm"
xl"
bx k"
bx j"
bx i"
bx h"
bx g"
xf"
0e"
bx d"
bx c"
xb"
bx a"
x`"
x_"
bx ^"
bx ]"
0\"
bx ["
bx Z"
bx Y"
bx X"
bx W"
bx V"
bx U"
xT"
xS"
bx R"
bx Q"
0P"
bx O"
bx N"
bx M"
bx L"
bx K"
bx J"
bx I"
xH"
xG"
bx F"
bx E"
0D"
bx C"
bx B"
bx A"
bx @"
bx ?"
bx >"
bx ="
x<"
x;"
bx :"
bx 9"
08"
bx 7"
bx 6"
bx 5"
bx 4"
bx 3"
bx 2"
bx 1"
x0"
x/"
bx ."
bx -"
0,"
bx +"
bx *"
bx )"
bx ("
bx '"
bx &"
bx %"
x$"
x#"
bx ""
bx !"
0~
bx }
bx |
bx {
bx z
bx y
bx x
bx w
b11111111 v
bx u
b0xxxxxx t
bx s
bx r
bx q
bx p
bx o
bx n
xm
xl
xk
xj
xi
xh
xg
xf
bx e
bx d
bx c
bx b
bx a
bx `
bx _
bx ^
bx ]
bx \
bx [
bx Z
bx Y
bx X
bx W
bx V
bx U
bx T
bx S
bx R
bx Q
bx P
bx O
bx N
bx M
bx L
bx K
bx J
bx I
bx H
bx G
bx F
bx E
bx D
bx C
bx B
bx A
bx @
bx ?
bx >
bx =
bx <
bx ;
bx :
bx 9
bx 8
bx 7
bx 6
bx 5
b0 4
bz0 3
12
x1
10
x/
x.
x-
x,
x+
x*
bz0 )
b11111111 (
bx '
b0xxxxxx &
b0 %
bx $
0#
b0 "
bz !
$end
#50000
00
#100000
10
#150000
00
#200000
10
#250000
00
#300000
10
#350000
00
#400000
10
#450000
00
#500000
10
#550000
00
#600000
10
#650000
00
#700000
10
#750000
00
#800000
10
#850000
00
#900000
b0 m#
b0 l#
b0 X"
b0 W"
b0 U"
b0 V"
b0 b#
b0 a#
b0 L"
b0 K"
b0 I"
b0 J"
0$#
0*#
b0 +#
0(#
b0 %#
b0 W#
b0 V#
b0 @"
b0 ?"
b0 ="
b0 >"
b0 L#
b0 K#
b0 4"
b0 3"
b0 1"
b0 2"
0q"
0w"
b0 x"
0u"
b0 r"
b0 A#
b0 @#
b0 ("
b0 '"
b0 %"
b0 &"
b0 6#
b0 5#
b0 z
b0 y
b0 w
b0 x
0b"
0f"
b0 g"
b0 c"
0g
1m"
b0 p
b0 !"
b0 -"
b0 i"
b0 k"
0o"
0f
1~"
b0 o
b0 9"
b0 E"
b0 z"
b0 |"
0"#
0.#
12#
b0 n
b0 Q"
b0 ]"
b0 -#
b0 0#
04#
0$"
00"
0<"
0H"
0T"
0`"
0/
0;#
b0 :#
b0 =#
b0 ?#
0.
0F#
b0 E#
b0 H#
b0 J#
0-
0Q#
b0 P#
b0 S#
b0 U#
0,
0\#
b0 [#
b0 ^#
b0 `#
0+
0g#
b0 f#
b0 i#
b0 k#
0*
0r#
b0 q#
b0 t#
b0 v#
b0 \
b0 E$
b0 ^
b0 G$
b0 Z"
b0 `
b0 I$
b0 ]
b0 F$
b0 Y"
b0 _
b0 H$
b0 [
b0 D$
b0 V
b0 ?$
b0 X
b0 A$
b0 ##
b0 N"
b0 Z
b0 C$
b0 W
b0 @$
b0 M"
b0 Y
b0 B$
b0 U
b0 >$
b0 c
b0 L$
b0 '#
b0 e
b0 N$
b0 b
b0 K$
b0 &#
b0 O"
b0 ["
b0 d
b0 M$
b0 a
b0 J$
b0 K
b0 4$
b0 M
b0 6$
b0 B"
b0 O
b0 8$
b0 L
b0 5$
b0 A"
b0 N
b0 7$
b0 J
b0 3$
b0 E
b0 .$
b0 G
b0 0$
b0 p"
b0 6"
b0 I
b0 2$
b0 F
b0 /$
b0 5"
b0 H
b0 1$
b0 D
b0 -$
b0 R
b0 ;$
b0 t"
b0 T
b0 =$
b0 Q
b0 :$
b0 s"
b0 7"
b0 C"
b0 S
b0 <$
b0 P
b0 9$
b0 <
b0 %$
b0 >
b0 '$
b0 *"
b0 @
b0 )$
b0 =
b0 &$
b0 )"
b0 ?
b0 ($
b0 ;
b0 $$
b0 6
b0 }#
b0 8
b0 !$
b0 a"
b0 |
b0 :
b0 #$
b0 7
b0 ~#
b0 {
b0 9
b0 "$
b0 5
b0 |#
b0 B
b0 +$
b0 d"
b0 }
b0 +"
b0 C
b0 ,$
b0 A
b0 *$
0l"
0n"
b0 s
b0 ""
b0 ."
b0 h"
b0 j"
0}"
0!#
b0 r
b0 :"
b0 F"
b0 y"
b0 {"
01#
03#
b0 q
b0 R"
b0 ^"
b0 ,#
b0 /#
0m
0#"
0l
0/"
0k
0;"
0j
0G"
0i
0S"
0h
0_"
08#
b0 9#
b0 <#
b0 >#
0C#
b0 D#
b0 G#
b0 I#
0N#
b0 O#
b0 R#
b0 T#
0Y#
b0 Z#
b0 ]#
b0 _#
0d#
b0 e#
b0 h#
b0 j#
b0 &
b0 t
0o#
b0 p#
b0 s#
b0 u#
b0 (
b0 v
b110001 O$
1z#
1y#
1e"
1v"
1)#
1~
1,"
18"
1D"
1P"
1\"
17#
1B#
1M#
1X#
1c#
1n#
bz1 )
bz1 3
1#
02
10
#950000
00
#1000000
b110001 O$
10
#1050000
00
#1100000
b110001 O$
10
#1150000
00
#1200000
b110001 O$
10
#1250000
00
#1300000
b110001 O$
10
#1350000
00
#1400000
b110001 O$
10
#1450000
00
#1500000
b110001 O$
10
#1550000
00
#1600000
b110001 O$
10
#1650000
00
#1700000
b110001 O$
10
#1750000
00
#1800000
b110001 O$
10
#1850000
00
#1900000
b110001 O$
10
#1950000
00
#2000000
b110001 O$
10
#2050000
00
#2100000
b110001 O$
10
#2150000
00
#2200000
b110001 O$
10
#2250000
00
#2300000
b110001 O$
10
#2350000
00
#2400000
b110001 O$
10
#2450000
00
#2500000
b110001 O$
10
#2550000
00
#2600000
b110001 O$
10
#2650000
00
#2700000
b110001 O$
10
#2750000
00
#2800000
b110001 O$
10
#2850000
00
#2900000
b110001 O$
10
#2950000
00
#3000000
b110001 O$
10
#3050000
00
#3100000
b110001 O$
10
#3150000
00
#3200000
b110001 O$
10
#3250000
00
#3300000
b110001 O$
10
#3350000
00
#3400000
b110001 O$
10
#3450000
00
#3500000
b110001 O$
10
#3550000
00
#3600000
b110001 O$
10
#3650000
00
#3700000
b110001 O$
10
#3750000
00
#3800000
b110001 O$
10
#3850000
00
#3900000
b110001 O$
10
#3950000
00
#4000000
b110001 O$
10
#4050000
00
#4100000
b110001 O$
10
#4150000
00
#4200000
b110001 O$
10
#4250000
00
#4300000
b110001 O$
10
#4350000
00
#4400000
b110001 O$
10
#4450000
00
#4500000
b110001 O$
10
#4550000
00
#4600000
b110001 O$
10
#4650000
00
#4700000
b110001 O$
10
#4750000
00
#4800000
b110001 O$
10
#4850000
00
#4900000
b110001 O$
10
#4950000
00
#5000000
b110001 O$
10
#5050000
00
#5100000
b110001 O$
10
#5150000
00
#5200000
b110001 O$
10
#5250000
00
#5300000
b110001 O$
10
#5350000
00
#5400000
b110001 O$
10
#5450000
00
#5500000
b110001 O$
10
#5550000
00
#5600000
b110001 O$
10
#5650000
00
#5700000
b110001 O$
10
#5750000
00
#5800000
b110001 O$
10
#5850000
00
#5900000
b110001 O$
10
#5950000
00
#6000000
b110001 O$
10
#6050000
00
#6100000
b110001 O$
10
#6150000
00
#6200000
b110001 O$
10
#6250000
00
#6300000
b110001 O$
10
#6350000
00
#6400000
b110001 O$
10
#6450000
00
#6500000
b110001 O$
10
#6550000
00
#6600000
b110001 O$
10
#6650000
00
#6700000
b110001 O$
10
#6750000
00
#6800000
b110001 O$
10
#6850000
00
#6900000
b110001 O$
10
#6950000
00
#7000000
b110001 O$
10
#7050000
00
#7100000
b110001 O$
10
#7150000
00
#7200000
b110001 O$
10
#7250000
00
#7300000
b110001 O$
10
#7350000
00
#7400000
b110001 O$
10
#7450000
00
#7500000
b110001 O$
10
#7550000
00
#7600000
b110001 O$
10
#7650000
00
#7700000
b110001 O$
10
#7750000
00
#7800000
b110001 O$
10
#7850000
00
#7900000
b110001 O$
10
#7950000
00
#8000000
b110001 O$
10
#8050000
00
#8100000
b110001 O$
10
#8150000
00
#8200000
b110001 O$
10
#8250000
00
#8300000
b110001 O$
10
#8350000
00
#8400000
b110001 O$
10
#8450000
00
#8500000
b110001 O$
10
#8550000
00
#8600000
b110001 O$
10
#8650000
00
#8700000
b110001 O$
10
#8750000
00
#8800000
b110001 O$
10
#8850000
00
#8900000
b110001 O$
10
#8950000
00
#9000000
b110001 O$
10
#9050000
00
#9100000
b110001 O$
10
#9150000
00
#9200000
b110001 O$
10
#9250000
00
#9300000
b110001 O$
10
#9350000
00
#9400000
b110001 O$
10
#9450000
00
#9500000
b110001 O$
10
#9550000
00
#9600000
b110001 O$
10
#9650000
00
#9700000
b110001 O$
10
#9750000
00
#9800000
b110001 O$
10
#9850000
00
#9900000
b110001 O$
10
#9950000
00
#10000000
b110001 O$
10
#10050000
00
#10100000
b110001 O$
10
#10150000
00
#10200000
b110001 O$
10
#10250000
00
#10300000
b110001 O$
10
#10350000
00
#10400000
b110001 O$
10
#10450000
00
#10500000
b110001 O$
10
#10550000
00
#10600000
b110001 O$
10
#10650000
00
#10700000
b110001 O$
10
#10750000
00
#10800000
b110001 O$
10
#10850000
00
#10900000
1l"
1}"
11#
0y#
0e"
0v"
0)#
0~
0,"
08"
0D"
0P"
0\"
07#
0B#
0M#
0X#
0c#
0n#
10
12
#10950000
00
#11000000
10
#11050000
00
#11100000
10
#11150000
00
#11200000
10
#11250000
00
#11300000
10
#11350000
00
#11400000
10
#11450000
00
#11500000
10
#11550000
00
#11600000
10
#11650000
00
#11700000
10
#11750000
00
#11800000
b0 $
b0 '
b0 u
b0 {#
b0 w#
b10111 %
b10111 4
b10111 x#
b10111 "
b0z1 )
b0z1 3
b0 !
10
#11850000
00
#11900000
1g
1b"
1f"
b1 g"
b1 c"
b10111 $
b10111 '
b10111 u
b10111 {#
b10111 A
b10111 *$
10
#11950000
00
#12000000
10
#12050000
00
#12100000
10
#12150000
00
#12200000
10
#12250000
00
#12300000
10
#12350000
00
#12400000
10
#12450000
00
#12500000
10
#12550000
00
#12600000
b0 $
b0 '
b0 u
b0 {#
b1 w#
b0 %
b0 4
b0 x#
b0 "
b1z1 )
b1z1 3
b1 !
10
#12650000
00
#12700000
10
#12750000
00
#12800000
10
#12850000
00
#12900000
10
#12950000
00
#13000000
10
#13050000
00
#13100000
10
#13150000
00
#13200000
10
#13250000
00
#13300000
10
#13350000
00
#13400000
b10 w#
b11111 %
b11111 4
b11111 x#
b11111 "
b10z1 )
b10z1 3
b10 !
10
#13450000
00
#13500000
0m"
b1 p
b1 !"
b1 -"
b1 i"
b1 k"
b11111 $
b11111 '
b11111 u
b11111 {#
b11111 d"
b11111 }
b11111 +"
b11111 B
b11111 +$
10
#13550000
00
